ply
format ascii 1.0
comment VCGLIB generated
comment TextureFile TropicalFish01.jpg
element vertex 279
property float x
property float y
property float z
property float nx
property float ny
property float nz
property float texture_u
property float texture_v
element face 516
property list uchar int vertex_indices
end_header
-103.19 -20.0503 56.8915 1.48238 0.856454 -5.68029 0.7107 0.4444
-138.029 -45.1627 37.7511 0.0113328 -0.016986 2.05333 0.7787 0.3947
-128.495 -55.9115 33.3705 54.9723 -149.096 10.1742 0.7601 0.3734
-89.3534 -39.8018 58.271 56.6106 -146.776 3.52218 0.6837 0.4053
-142.248 -49.9418 38.7552 -2.73267 -2.75268 5.48431 0.7869 0.3852
-103.641 -20.0503 60.3482 -1.09267 -0.646065 4.72795 0.7116 0.4444
-89.8034 -39.8018 61.7278 54.4565 -149.379 10.8933 0.6846 0.4053
-117.027 -0.2989 55.5119 -123.96 122.991 -18.0541 0.7377 0.4835
-117.478 -0.2988 58.9686 -124.497 121.801 -13.2573 0.7386 0.4835
-149.934 -35.8219 38.0538 -124.772 121.356 -13.8014 0.8019 0.4132
-58.9732 8.4548 65.7673 3.54587 0.147716 -2.94407 0.8125 0.1981
-58.9706 8.4548 67.0987 2.45777 0.459067 2.96015 0.8125 0.1981
-75.1088 61.2219 64.8125 -0.954199 1.41816 1.82632 0.844 0.3025
-75.1114 61.2219 63.4811 1.43578 1.19576 -2.05038 0.844 0.3025
-64.2507 -44.3123 66.3507 1.66166 -1.19395 0.967673 0.8228 0.0937
-64.2533 -44.3123 65.0193 0.865714 -2.05275 -1.01067 0.8228 0.0937
-103.19 -20.0503 -56.8914 1.47156 0.834545 5.68968 0.7107 0.4444
-89.3534 -39.8018 -58.271 56.4527 -146.598 -3.49632 0.6837 0.4053
-128.497 -55.8708 -33.7927 54.8271 -148.898 -10.174 0.7601 0.3735
-138.029 -45.1627 -38.3224 -0.0606861 -0.0634448 -2.0284 0.7787 0.3947
-89.8034 -39.8018 -61.7278 54.3307 -149.194 -10.8819 0.6846 0.4053
-103.641 -20.0503 -60.3482 -1.08372 -0.635446 -4.73371 0.7116 0.4444
-142.248 -49.9418 -39.3264 -2.68017 -2.71292 -5.53149 0.7869 0.3852
-117.027 -0.2989 -55.5119 -123.963 122.853 18.0537 0.7377 0.4835
-149.934 -35.8219 -38.3394 -124.738 121.224 13.7529 0.8019 0.4132
-117.478 -0.2989 -58.9686 -124.495 121.69 13.2493 0.7386 0.4835
-58.9732 8.4548 -65.7673 3.54588 0.147715 2.94407 0.8125 0.1981
-75.1114 61.2219 -63.4811 1.43578 1.19576 2.05037 0.844 0.3025
-75.1088 61.2219 -64.8125 -0.954202 1.41815 -1.82634 0.844 0.3025
-58.9706 8.4548 -67.0987 2.45777 0.459067 -2.96015 0.8125 0.1981
-64.2533 -44.3123 -65.0193 0.865715 -2.05275 1.01067 0.8228 0.0937
-64.2507 -44.3123 -66.3507 1.66166 -1.19395 -0.967673 0.8228 0.0937
57.939 -63.825 5.4459 0.653336 -0.875113 3.63274 0.3963 0.3577
16.4456 -86.9053 5.4459 1.04795 -2.31009 5.02399 0.4773 0.3121
26.6777 -60.6834 27.9578 1.56052 -2.9705 4.75958 0.4573 0.3639
81.1164 -45.7392 5.4459 1.69572 -1.85707 5.09869 0.3511 0.3935
-29.5148 -93.9158 5.4459 0.286762 -2.46928 5.18035 0.567 0.2982
-17.1681 -60.6865 32.9362 0.540327 -3.03572 5.00089 0.5429 0.3639
-58.8282 -60.6895 37.9147 0.251114 -2.87809 5.12159 0.6242 0.3639
-62.9944 -92.0529 5.4459 1.42246 -4.41137 5.54455 0.6323 0.3019
-119.023 -90.0074 5.44589 -1.52671 -5.47263 2.86041 0.7416 0.3059
-99.9569 -59.6419 37.913 -0.84194 -3.8938 5.56713 0.7044 0.366
-144.656 -77.3273 5.44589 -2.96037 -5.19658 2.5558 0.7916 0.331
-167.692 -62.0979 5.44589 -2.87248 -4.25076 2.09012 0.8366 0.3611
-161.814 -42.7519 24.0499 -3.18425 -2.14515 4.27569 0.8251 0.3994
33.009 -18.527 40.6712 1.8314 -1.01061 6.50434 0.445 0.4474
102.722 -22.5386 5.4459 1.78517 -0.137021 5.53083 0.3089 0.4394
-13.3211 -18.5265 47.8795 0.865766 -0.979628 5.74651 0.5354 0.4474
-57.4443 -18.526 55.0877 0.278585 -0.646433 4.83594 0.6215 0.4474
-94.8203 -17.5138 55.0907 -0.793666 -1.15852 5.66251 0.6944 0.4494
-162.699 -27.8341 24.0499 -3.03987 -0.4903 5.02765 0.8268 0.429
31.6257 16.6938 39.7232 1.20653 0.776742 3.60676 0.4477 0.5171
101.798 -1.8515 9.6033 1.81939 0.692303 5.42754 0.3107 0.4804
-10.0105 18.0901 46.7623 1.04303 1.2801 5.64465 0.5289 0.5199
-54.9878 19.4864 53.8015 0.618895 1.21891 5.72069 0.6167 0.5226
-94.7981 17.3477 53.8018 -0.779389 1.48057 6.62466 0.6944 0.5184
-172.516 9.0069 24.0499 -3.5304 0.54789 5.87645 0.846 0.5019
-148.159 15.6162 40.0887 -2.36768 0.248094 5.24638 0.7985 0.515
101.729 8.4206 7.5246 1.42973 2.0669 5.22657 0.3109 0.5007
31.0941 40.6853 26.6788 2.2907 3.44835 5.51795 0.4487 0.5646
-9.1144 55.9187 30.7419 1.29911 3.1253 4.84737 0.5272 0.5947
-98.1113 64.6773 34.805 -0.56785 2.52769 4.19292 0.7008 0.6121
-53.0332 64.1591 34.805 0.374981 3.09376 5.00442 0.6129 0.611
-181.973 25.3436 14.7479 -2.65517 1.23228 4.03669 0.8645 0.5342
-150.351 54.2419 26.8886 -2.37362 2.41223 5.94623 0.8028 0.5914
57.939 -63.825 -6.5885 0.612573 -0.919546 -3.63307 0.3963 0.3577
81.1164 -45.7392 -6.5885 1.60682 -1.83325 -5.11506 0.3511 0.3935
26.6756 -60.6489 -29.0621 1.5592 -2.97024 -4.76189 0.4573 0.364
16.4456 -86.9053 -6.5885 1.02241 -2.3518 -5.0225 0.4773 0.3121
-17.1706 -60.6459 -34.0432 0.540007 -3.03633 -5.00231 0.5429 0.364
-29.5148 -93.9158 -6.5885 0.255561 -2.31275 -4.19537 0.567 0.2982
-119.023 -90.0074 -6.58851 -1.46075 -4.80711 -2.14084 0.7416 0.3059
-62.9944 -92.0529 -6.5885 -0.171435 -5.99759 -6.27354 0.6323 0.3019
-58.8312 -60.6429 -39.0242 0.25086 -2.88019 -5.12181 0.6242 0.364
-99.9598 -59.5953 -39.026 -0.887911 -3.88091 -5.57133 0.7044 0.3661
-167.692 -62.0979 -6.58851 -2.89488 -4.23219 -2.09574 0.8366 0.3611
-144.656 -77.3273 -6.58851 -2.81967 -5.2475 -2.58409 0.7916 0.331
-161.814 -42.7519 -25.1925 -3.13466 -2.11897 -4.32995 0.8251 0.3994
102.722 -22.5386 -6.5885 2.13246 -2.02223 -5.52748 0.3089 0.4394
33.0145 -18.5326 -41.8244 1.83093 -1.01309 -6.50331 0.445 0.4474
-13.3146 -18.533 -49.0253 0.865121 -0.982744 -5.74537 0.5354 0.4474
-57.4368 -18.5335 -56.2265 0.278153 -0.648683 -4.83522 0.6215 0.4474
-94.8129 -17.5213 -56.2235 -0.816556 -1.17379 -5.65478 0.6944 0.4494
-162.699 -27.8341 -25.1925 -2.99923 -0.490898 -5.06567 0.8268 0.429
101.798 -1.8515 -10.746 1.88122 0.515327 -6.40968 0.3107 0.4804
31.6267 16.6857 -40.8686 1.20652 0.77702 -3.60675 0.4477 0.5171
-10.0094 18.0806 -47.9063 1.04266 1.28029 -5.64477 0.5289 0.5198
-54.9866 19.4755 -54.9439 0.618572 1.21857 -5.72081 0.6167 0.5226
-94.7969 17.3367 -54.9437 -0.784081 1.47481 -6.62314 0.6944 0.5184
-148.158 15.608 -41.2296 -2.36719 0.212635 -5.25747 0.7985 0.5149
-172.516 9.0069 -25.1925 -3.51912 0.541083 -5.88481 0.846 0.5019
101.729 8.4206 -8.6672 1.42974 2.0669 -5.22657 0.3109 0.5007
31.0941 40.6849 -27.8217 2.29063 3.44825 -5.51802 0.4487 0.5646
-9.1144 55.9183 -31.8846 1.29901 3.12513 -4.84747 0.5272 0.5947
-53.0332 64.1586 -35.9475 0.374941 3.09352 -5.00453 0.6129 0.611
-98.1113 64.6768 -35.9475 -0.567843 2.5275 -4.193 0.7008 0.6121
-150.351 54.2415 -28.0312 -2.37349 2.41197 -5.9464 0.8028 0.5914
-181.973 25.3436 -15.8905 -2.6551 1.23225 -4.03674 0.8645 0.5342
128.358 -97.5971 0.742206 2.8709 -0.706597 3 0.2589 0.2909
128.358 -97.5971 -1.88479 2.76389 -1.04991 -3 0.2589 0.2909
111.017 -130.667 -1.8848 1.34274 -1.35381 -3 0.2928 0.2254
111.017 -130.667 0.742205 2.68548 -2.70762 3 0.2928 0.2254
83.8419 -144.633 0.742204 0.356704 -2.88688 3 0.3458 0.1978
83.8419 -144.633 -1.8848 0.864028 -2.77755 -3 0.3458 0.1978
-37.2395 -121.518 0.742198 0.257371 -2.57402 1 0.582 0.2435
-33.7295 -117.308 0.742199 2.2925 -0.626426 2 0.5752 0.2519
-33.7295 -117.308 -1.8848 2.28069 0.668131 -1 0.5752 0.2519
-37.2395 -121.518 -1.8848 1.28084 -2.2475 -2 0.582 0.2435
-209.72 -42.0612 5.44589 -1.05439 -2.36068 0.804728 0.9186 0.4008
-209.72 -42.0612 -6.58851 -1.87757 -4.17459 -0.804724 0.9186 0.4008
-220.779 -35.7915 -6.58851 -3.1303 -0.640348 -3.52029 0.9402 0.4132
-220.779 -35.7915 5.44589 -2.8254 -2.11284 3.5203 0.9402 0.4132
-215.672 -29.0277 -6.58851 -1.96029 -1.40097 -1.91422 0.9302 0.4266
-215.672 -29.0277 5.44589 -2.43594 0.148195 1.91422 0.9302 0.4266
-227.457 -25.0137 -6.58851 -2.14337 -0.61887 -2.75708 0.9515 0.4356
-227.457 -25.0137 5.44589 -3.4141 -1.24818 2.75708 0.9515 0.4356
-226.013 -20.6979 5.44589 -4.37199 2.30001 3.43844 0.9595 0.4399
-226.013 -20.6979 -6.58851 -4.372 2.30001 -3.43843 0.9516 0.4426
-202.623 4.2893 5.44589 -3.83066 2.10903 2.58961 0.9135 0.4998
-224.569 -16.382 5.44589 -2.66673 2.09813 0.879726 0.952 0.4686
-224.569 -16.382 -6.58851 -2.92941 1.6875 -0.879726 0.9476 0.4516
-202.623 4.2893 -6.58851 -3.55829 2.55022 -2.58961 0.9047 0.4925
-119.024 111.251 0.742195 -1.54236 3.88387 2.74565 0.7137 0.7315
-133.824 104.683 0.742194 -1.48414 3.09125 0.895249 0.7681 0.7038
-133.824 104.683 -1.88481 -1.62923 3.0119 -0.895249 0.7705 0.6912
-119.024 111.251 -1.88481 -1.54236 3.88387 -2.74565 0.7416 0.7042
63.6296 138.328 0.742103 1.21877 2.74128 3 0.3852 0.7578
49.4476 144.633 0.742102 0.789881 2.82726 1 0.4129 0.7703
49.4476 144.633 -1.8849 0.360991 2.91324 -1 0.4129 0.7703
63.6296 138.328 -1.8849 1.21876 2.74126 -3 0.3852 0.7578
77.8116 132.023 0.742103 1.00938 1.71141 4 0.3575 0.7453
77.8116 132.023 -1.8849 2.01875 3.4228 -3 0.3575 0.7453
110.171 107.555 -1.8849 1.55525 1.10333 -2 0.2944 0.6969
110.171 107.555 0.742105 3.1105 2.20668 1 0.2944 0.6969
227.457 29.1709 0.66911 3.24539 -0.072298 2.98955 0.0656 0.5418
225.885 60.1776 0.66911 2.19105 1.10072 1.99252 0.0686 0.6032
225.885 60.1776 -1.81169 1.21315 2.04986 -1.99252 0.0686 0.6032
227.457 29.1709 -1.81169 3.24575 0.035414 -2.98954 0.0656 0.5418
224.556 -21.5889 0.66911 2.16212 -0.321203 2.99302 0.0712 0.4413
224.556 -21.5889 -1.81169 4.06299 -0.656236 -1.99483 0.0712 0.4413
210.15 -72.5727 -3.54639 0.915415 -1.24585 -1.99638 0.0993 0.3404
210.15 -72.5727 2.40371 1.65132 -2.50984 0.99819 0.0993 0.3404
131.014 -30.8749 0.742206 1.51775 0.909603 2 0.2537 0.4229
131.014 -30.8749 -1.88479 3.0355 1.81921 -1 0.2537 0.4229
132.72 -61.8427 -1.88479 2.98377 -0.187205 -3 0.2504 0.3617
132.72 -61.8427 0.742206 2.98961 -0.0111222 3 0.2504 0.3617
-183.294 -37.9924 15.803 -1.99631 -1.65649 5.09954 0.867 0.4089
-187.982 -49.6606 5.44589 -2.02147 -4.39461 2.34708 0.8762 0.3858
-184.278 -24.5392 15.803 -2.11353 -0.449209 6.61622 0.869 0.4355
-190.913 -3.7386 15.803 -1.96666 0.624216 4.37899 0.8819 0.4767
-195.487 0.6647 10.6245 -2.92731 1.38486 5.00625 0.8908 0.4854
-187.982 -49.6606 -6.58851 -2.21408 -4.30322 -2.34707 0.8762 0.3858
-183.294 -37.9925 -16.9457 -1.99631 -1.6565 -5.09954 0.867 0.4089
-184.278 -24.5392 -16.9457 -2.11353 -0.449209 -6.61622 0.869 0.4355
-190.913 -3.7386 -16.9457 -1.96666 0.624229 -4.37898 0.8819 0.4767
-195.487 0.6647 -11.7671 -2.92732 1.38487 -5.00624 0.8908 0.4854
-191.431 41.6803 5.44589 -4.13743 2.13816 2.45184 0.8933 0.5739
-191.431 41.6803 -6.58851 -4.29756 1.82208 -2.45184 0.8829 0.5665
-153.776 91.5187 5.44589 -3.3316 4.30024 4.21855 0.8271 0.657
-153.776 91.5187 -6.58851 -3.57874 4.06838 -4.21856 0.823 0.6531
-134.531 -82.3359 5.44589 -2.00064 -4.72287 2.09545 0.7719 0.3211
-127.081 16.3001 45.5054 -1.46966 0.843743 5.64091 0.7573 0.5163
-108.926 98.3528 5.4459 -0.242082 2.38027 4.24624 0.7219 0.6787
-129.716 58.3639 30.0156 -1.00481 2.0777 4.39339 0.7625 0.5996
-136.06 94.2182 5.44589 -0.939658 3.17467 6.09278 0.7775 0.6718
-134.531 -82.3359 -6.58851 -2.00957 -4.69902 -2.11416 0.7719 0.3211
-127.08 16.2908 -46.6467 -1.48965 0.82237 -5.63493 0.7573 0.5163
-129.716 58.3635 -31.1582 -1.00479 2.07743 -4.3935 0.7625 0.5996
11.5455 143.775 0.7421 -0.181122 2.99022 4 0.4869 0.7686
-39.916 136.719 0.742098 -0.535074 2.94617 2 0.5873 0.7546
-39.916 136.719 -1.8848 -0.662567 2.92013 -1 0.5873 0.7546
11.5455 143.775 -1.8848 -0.294356 2.98119 -5 0.4869 0.7686
118.965 -1.5829 8.2097 0.430002 0.158747 6.88986 0.2772 0.4809
119.889 -18.5981 5.44591 0.337939 -3.35552 2.95983 0.2754 0.4472
119.889 -18.5981 -6.58849 -0.177495 -3.37807 -2.95325 0.2754 0.4472
118.965 -1.5829 -9.35229 0.429126 0.199704 -6.89643 0.2772 0.4809
118.896 5.5337 -7.97039 0.261772 0.988459 -5.90598 0.2774 0.495
115.73 90.2398 -1.88479 2.88429 0.810239 -4 0.2836 0.6627
122.66 56.0898 -1.88479 2.95726 0.472361 -2 0.27 0.5951
122.66 56.0898 0.742105 2.97445 0.348116 1 0.27 0.5951
115.73 90.2398 0.742105 2.91219 0.703432 5 0.2836 0.6627
101.66 18.6928 5.4459 0.888351 1.57011 5.60137 0.311 0.521
118.827 12.6503 5.44591 0.304363 2.22909 3.89848 0.2775 0.5091
118.896 5.5337 6.82781 0.261785 0.988441 5.90598 0.2774 0.495
133.88 -1.2433 6.97951 0.665473 -0.205461 5.92469 0.2481 0.4816
133.024 -22.6168 4.44591 -0.847245 -2.95746 2.96423 0.2498 0.4393
133.024 -22.6168 -5.58849 -1.25085 -2.86929 -2.96531 0.2498 0.4393
133.88 -1.2433 -8.12219 0.749418 -0.1281 -5.92361 0.2481 0.4816
136.614 10.8779 -6.85539 0.520541 0.411558 -5.94021 0.2428 0.5056
118.827 12.6503 -6.58849 1.57937 0.722846 -2.93366 0.2775 0.5091
139.348 22.999 -5.58849 -1.27702 2.93449 -2.97342 0.2375 0.5296
139.348 22.999 4.44591 -1.32527 2.90846 2.97343 0.2375 0.5296
136.614 10.8779 5.71271 0.520564 0.411543 5.94021 0.2428 0.5056
164.018 -7.6414 0.799507 0.343572 -0.107566 5.95746 0.1893 0.4689
159.119 -42.8216 0.799507 -1.71687 -2.46114 2.98627 0.1989 0.3993
159.119 -42.8216 -1.94219 -1.48336 -2.56044 -2.97471 0.1989 0.3993
164.018 -7.6414 -1.94219 0.160959 -0.045184 -5.96902 0.1893 0.4689
168.761 17.5007 -1.94219 0.340161 0.0194041 -5.95809 0.1801 0.5187
173.504 42.6429 -1.94219 -1.26066 2.64081 -2.98322 0.1708 0.5684
173.504 42.6429 0.799508 -1.22815 2.65871 2.98322 0.1708 0.5684
168.761 17.5007 0.799507 0.340164 0.0194008 5.95809 0.1801 0.5187
204.104 -12.7552 2.40371 0.105908 0.00858784 5.98915 0.1111 0.4588
200.607 -70.9606 2.40371 -1.20745 -2.62573 2.99566 0.1179 0.3436
200.607 -70.9606 -3.54639 -0.910459 -2.7868 -2.99674 0.1179 0.3436
204.104 -12.7552 -3.54639 0.20367 0.0112266 -5.98806 0.1111 0.4588
205.811 23.9024 -3.54639 0.124547 0.00891517 -5.9863 0.1078 0.5314
207.518 60.56 -3.54639 -0.918413 2.77889 -2.99405 0.1045 0.6039
207.518 60.56 2.40371 -0.431555 2.89392 2.99405 0.1045 0.6039
205.811 23.9024 2.40371 0.124533 0.00891544 5.9863 0.1078 0.5314
25.8413 65.0076 5.4459 1.40723 2.31414 5.08058 0.459 0.6127
-4.911 80.0927 5.4459 1.03854 2.31857 4.05034 0.519 0.6426
-48.2435 98.6572 5.4459 0.629879 2.72285 6.13203 0.6035 0.6793
101.66 18.6928 -6.5885 0.866962 1.62004 -5.59273 0.311 0.521
25.8413 65.0076 -6.5885 1.53223 2.50583 -6.05405 0.459 0.6127
-4.911 80.0927 -6.5885 1.03853 2.31856 -4.05035 0.519 0.6426
-48.2435 98.6572 -6.5885 0.625506 2.51065 -5.15482 0.6035 0.6793
-108.926 98.3528 -6.5885 -0.237714 2.59243 -5.22348 0.7219 0.6787
-136.06 94.2182 -6.58851 -0.939653 3.17465 -6.0928 0.7775 0.6718
32.4161 87.7331 0.742201 0.337334 0.560331 4.92726 0.4461 0.6577
104.61 37.5283 0.742205 0.332246 0.674971 5.9031 0.3053 0.5583
124.795 27.5536 0.742206 2.95751 -0.427216 2.96482 0.2659 0.5386
124.795 27.5536 -1.88479 3.13 0.260775 -2.92964 0.2659 0.5386
104.61 37.5283 -1.8848 0.353629 0.625029 -5.91174 0.3053 0.5583
32.4161 87.7331 -1.8848 0.212326 0.36863 -4.9538 0.4461 0.6577
8.1477 99.8019 -1.8848 0.330976 0.712076 -6.92212 0.4935 0.6816
-33.8336 118.471 -1.8848 0.0869003 0.603462 -5.93516 0.5754 0.7185
-96.3561 121.311 -1.8848 -1.23261 3.5745 -4.88752 0.6974 0.7241
-96.3561 121.311 0.742196 -1.08595 3.83735 4.86474 0.6974 0.7241
-33.8336 118.471 0.742199 0.0825354 0.391299 5.95794 0.5754 0.7185
8.1477 99.8019 0.7422 0.330979 0.712083 6.92212 0.4935 0.6816
36.1794 130.701 0.742102 2.97366e-006 6.61479e-006 6 0.4388 0.7427
60.8132 117.627 0.742103 4.31636e-006 8.20329e-006 6 0.3907 0.7169
60.8132 117.627 -1.8848 -8.16905e-006 -1.49131e-005 -6 0.3907 0.7169
36.1794 130.701 -1.8848 -6.68437e-006 -1.39135e-005 -6 0.4388 0.7427
28.9485 -141.874 0.742201 -0.744618 -2.87432 1 0.4529 0.2033
28.9485 -141.874 -1.8848 -0.447619 -2.93527 -2 0.4529 0.2033
112.256 -55.5845 0.742205 0.37458 -0.214051 5.96599 0.2903 0.374
103.518 -85.4021 0.742205 0.206691 -0.281917 5.97833 0.3074 0.315
58.5703 -106.301 0.742203 0.117787 -0.416244 5.96777 0.3951 0.2737
9.4339 -118.575 0.7422 0.0457883 -0.46398 5.96336 0.491 0.2494
-20.8264 -123.445 0.742199 -1.53419 -2.69724 2.98786 0.55 0.2397
-20.8264 -123.445 -1.8848 -1.28424 -2.8329 -1.98786 0.55 0.2397
9.4339 -118.575 -1.8848 0.0769337 -0.617562 -6.951 0.491 0.2494
58.5703 -106.301 -1.8848 0.14214 -0.371742 -5.97261 0.3951 0.2737
103.518 -85.4021 -1.8848 0.246888 -0.236595 -5.97922 0.3074 0.315
112.256 -55.5845 -1.8848 0.462074 -0.236829 -5.95189 0.2903 0.374
117.237 -22.5037 -1.88479 0.697641 2.76807 -2.97926 0.2806 0.4395
117.237 -22.5037 0.742205 1.4025 2.53616 2.95852 0.2806 0.4395
-101.702 -96.9057 -1.8848 -1.22026 -4.11741 -2.4511 0.7078 0.2923
-62.6878 -95.1215 -1.8848 2.39044 0.426206 -2.72555 0.6317 0.2958
-62.6878 -95.1215 0.742197 1.79575 0.554152 2.4511 0.6317 0.2958
-101.702 -96.9057 0.742196 -1.16513 -3.45225 2.72555 0.7078 0.2923
-80.9402 -106.604 -1.8848 -1.16961 -2.76153 -3 0.6673 0.2731
-53.266 -99.261 -1.8848 1.42552 2.61485 -3 0.6133 0.2876
-53.266 -99.261 0.742198 1.6443 2.48311 3 0.6133 0.2876
-80.9402 -106.604 0.742197 -1.21966 -2.7398 3 0.6673 0.2731
-56.5317 -116.423 -1.8848 -0.88392 -2.86144 -3 0.6197 0.2536
-40.7886 -109.147 -1.8848 1.99836 2.2218 -3 0.589 0.268
-40.7886 -109.147 0.742198 2.13362 2.09225 3 0.589 0.268
-56.5317 -116.423 0.742198 -1.00174 -2.82236 3 0.6197 0.2536
-103.19 -20.0503 56.8915 1.48238 0.856454 -5.68029 0.8988 0.1417
-117.027 -0.2989 55.5119 -123.96 122.991 -18.0541 0.9258 0.1808
-89.8034 -39.8018 61.7278 54.4565 -149.379 10.8933 0.8726 0.1026
-89.3534 -39.8018 58.271 56.6106 -146.776 3.52218 0.8718 0.1026
-103.641 -20.0503 60.3482 -1.09267 -0.646065 4.72795 0.8996 0.1417
-117.478 -0.2988 58.9686 -124.497 121.801 -13.2573 0.9266 0.1808
-103.19 -20.0503 -56.8914 1.47156 0.834545 5.68968 0.8988 0.1417
-117.027 -0.2989 -55.5119 -123.963 122.853 18.0537 0.9258 0.1808
-89.8034 -39.8018 -61.7278 54.3307 -149.194 -10.8819 0.8726 0.1026
-89.3534 -39.8018 -58.271 56.4527 -146.598 -3.49632 0.8718 0.1026
-103.641 -20.0503 -60.3482 -1.08372 -0.635446 -4.73371 0.8996 0.1417
-117.478 -0.2989 -58.9686 -124.495 121.69 13.2493 0.9266 0.1808
-226.013 -20.6979 5.44589 -4.37199 2.30001 3.43844 0.9516 0.4426
-202.623 4.2893 5.44589 -3.83066 2.10903 2.58961 0.9047 0.4925
-224.569 -16.382 5.44589 -2.66673 2.09813 0.879726 0.9476 0.4516
-191.431 41.6803 5.44589 -4.13743 2.13816 2.45184 0.8829 0.5665
-153.776 91.5187 5.44589 -3.3316 4.30024 4.21855 0.823 0.6531
-119.024 111.251 0.742195 -1.54236 3.88387 2.74565 0.7416 0.7042
-133.824 104.683 0.742194 -1.48414 3.09125 0.895249 0.7705 0.6912
3 3 2 1 
3 3 1 0 
3 6 5 4 
3 6 4 2 
3 6 2 3 
3 9 8 7 
3 13 12 11 
3 13 11 10 
3 13 10 260 
3 13 260 261 
3 15 14 262 
3 15 262 263 
3 262 14 11 
3 262 11 264 
3 12 13 261 
3 12 261 265 
3 0 1 9 
3 0 9 7 
3 4 5 8 
3 4 8 9 
3 10 11 14 
3 10 14 15 
3 10 15 263 
3 10 263 260 
3 264 11 12 
3 264 12 265 
3 19 18 17 
3 19 17 16 
3 22 21 20 
3 22 20 18 
3 18 20 17 
3 25 24 23 
3 29 28 27 
3 29 27 26 
3 266 26 27 
3 266 27 267 
3 268 31 30 
3 268 30 269 
3 29 31 268 
3 29 268 270 
3 267 27 28 
3 267 28 271 
3 24 19 16 
3 24 16 23 
3 25 21 22 
3 25 22 24 
3 31 29 26 
3 31 26 30 
3 269 30 26 
3 269 26 266 
3 28 29 270 
3 28 270 271 
3 35 34 33 
3 35 33 32 
3 34 37 36 
3 34 36 33 
3 41 40 39 
3 41 39 38 
3 44 43 42 
3 44 42 4 
3 46 45 34 
3 46 34 35 
3 45 47 37 
3 45 37 34 
3 49 41 38 
3 49 38 48 
3 9 50 44 
3 9 44 4 
3 52 51 45 
3 52 45 46 
3 53 47 45 
3 53 45 51 
3 55 49 48 
3 55 48 54 
3 57 56 50 
3 57 50 9 
3 59 51 52 
3 59 52 58 
3 59 60 53 
3 59 53 51 
3 62 61 55 
3 62 55 54 
3 64 63 56 
3 64 56 57 
3 68 67 66 
3 68 66 65 
3 70 69 67 
3 70 67 68 
3 74 73 72 
3 74 72 71 
3 77 22 76 
3 77 76 75 
3 67 79 78 
3 67 78 66 
3 69 80 79 
3 69 79 67 
3 82 81 73 
3 82 73 74 
3 77 83 24 
3 77 24 22 
3 79 85 84 
3 79 84 78 
3 86 85 79 
3 86 79 80 
3 88 87 81 
3 88 81 82 
3 83 90 89 
3 83 89 24 
3 92 91 84 
3 92 84 85 
3 86 93 92 
3 86 92 85 
3 88 95 94 
3 88 94 87 
3 90 97 96 
3 90 96 89 
3 101 100 99 
3 101 99 98 
3 103 100 101 
3 103 101 102 
3 107 106 105 
3 107 105 104 
3 75 76 42 
3 75 42 43 
3 111 110 109 
3 111 109 108 
3 113 112 110 
3 113 110 111 
3 115 114 112 
3 115 112 113 
3 117 114 115 
3 117 115 116 
3 121 120 119 
3 121 119 118 
3 125 124 123 
3 125 123 122 
3 129 128 127 
3 129 127 126 
3 133 132 131 
3 133 131 130 
3 137 136 135 
3 137 135 134 
3 141 140 139 
3 141 139 138 
3 145 144 143 
3 145 143 142 
3 98 99 144 
3 98 144 145 
3 111 108 147 
3 111 147 146 
3 111 146 148 
3 111 148 113 
3 115 113 148 
3 115 148 149 
3 272 150 273 
3 272 273 274 
3 110 152 151 
3 110 151 109 
3 110 112 153 
3 110 153 152 
3 114 154 153 
3 114 153 112 
3 117 155 154 
3 117 154 114 
3 109 151 147 
3 109 147 108 
3 157 121 118 
3 157 118 156 
3 146 147 43 
3 146 43 44 
3 146 44 50 
3 146 50 148 
3 148 50 56 
3 148 56 149 
3 150 63 275 
3 150 275 273 
3 152 77 75 
3 152 75 151 
3 152 153 83 
3 152 83 77 
3 153 154 90 
3 153 90 83 
3 155 97 90 
3 155 90 154 
3 151 75 43 
3 151 43 147 
3 159 157 156 
3 159 156 158 
3 160 40 41 
3 160 41 2 
3 1 2 41 
3 1 41 49 
3 161 1 49 
3 161 49 55 
3 164 163 61 
3 164 61 162 
3 165 18 74 
3 165 74 71 
3 19 82 74 
3 19 74 18 
3 166 88 82 
3 166 82 19 
3 167 95 88 
3 167 88 166 
3 165 71 40 
3 165 40 160 
3 171 170 169 
3 171 169 168 
3 46 173 172 
3 46 172 52 
3 78 174 173 
3 78 173 46 
3 84 175 174 
3 84 174 78 
3 91 176 175 
3 91 175 84 
3 180 179 178 
3 180 178 177 
3 183 182 181 
3 183 181 58 
3 173 185 184 
3 173 184 172 
3 174 186 185 
3 174 185 173 
3 175 187 186 
3 175 186 174 
3 188 187 175 
3 188 175 176 
3 182 191 190 
3 182 190 189 
3 183 192 191 
3 183 191 182 
3 185 194 193 
3 185 193 184 
3 186 195 194 
3 186 194 185 
3 187 196 195 
3 187 195 186 
3 197 196 187 
3 197 187 188 
3 191 199 198 
3 191 198 190 
3 192 200 199 
3 192 199 191 
3 194 202 201 
3 194 201 193 
3 195 203 202 
3 195 202 194 
3 196 204 203 
3 196 203 195 
3 205 204 196 
3 205 196 197 
3 199 207 206 
3 199 206 198 
3 200 208 207 
3 200 207 199 
3 202 141 138 
3 202 138 201 
3 203 140 141 
3 203 141 202 
3 204 139 140 
3 204 140 203 
3 137 139 204 
3 137 204 205 
3 207 135 136 
3 207 136 206 
3 208 134 135 
3 208 135 207 
3 209 59 58 
3 209 58 181 
3 210 60 59 
3 210 59 209 
3 162 61 62 
3 162 62 211 
3 276 275 63 
3 276 63 64 
3 213 212 91 
3 213 91 92 
3 215 214 93 
3 215 93 94 
3 216 215 94 
3 216 94 95 
3 159 96 97 
3 159 97 157 
3 120 117 116 
3 120 116 119 
3 139 137 134 
3 139 134 138 
3 149 150 272 
3 149 272 115 
3 121 155 117 
3 121 117 120 
3 56 63 150 
3 56 150 149 
3 157 97 155 
3 157 155 121 
3 161 163 64 
3 161 64 57 
3 217 167 96 
3 217 96 159 
3 212 189 176 
3 212 176 91 
3 172 183 58 
3 172 58 52 
3 190 188 176 
3 190 176 189 
3 172 184 192 
3 172 192 183 
3 198 197 188 
3 198 188 190 
3 184 193 200 
3 184 200 192 
3 206 205 197 
3 206 197 198 
3 193 201 208 
3 193 208 200 
3 136 137 205 
3 136 205 206 
3 201 138 134 
3 201 134 208 
3 181 219 218 
3 181 218 209 
3 182 220 219 
3 182 219 181 
3 189 221 220 
3 189 220 182 
3 212 222 221 
3 212 221 189 
3 213 223 222 
3 213 222 212 
3 224 223 213 
3 224 213 214 
3 216 226 225 
3 216 225 215 
3 217 125 226 
3 217 226 216 
3 158 123 124 
3 158 124 159 
3 277 278 276 
3 277 276 164 
3 211 228 227 
3 211 227 162 
3 229 228 211 
3 229 211 210 
3 227 169 170 
3 227 170 226 
3 228 168 169 
3 228 169 227 
3 230 168 228 
3 230 228 229 
3 219 180 231 
3 219 231 218 
3 220 179 180 
3 220 180 219 
3 221 178 179 
3 221 179 220 
3 222 177 178 
3 222 178 221 
3 223 232 177 
3 223 177 222 
3 224 233 232 
3 224 232 223 
3 226 170 171 
3 226 171 225 
3 168 127 128 
3 168 128 171 
3 126 127 168 
3 126 168 230 
3 180 133 130 
3 180 130 231 
3 177 132 133 
3 177 133 180 
3 232 131 132 
3 232 132 177 
3 233 129 131 
3 233 131 232 
3 39 36 37 
3 39 37 38 
3 38 37 47 
3 38 47 48 
3 54 48 47 
3 54 47 53 
3 54 53 60 
3 54 60 62 
3 72 73 69 
3 72 69 70 
3 73 81 80 
3 73 80 69 
3 87 86 80 
3 87 80 81 
3 87 94 93 
3 87 93 86 
3 235 103 102 
3 235 102 234 
3 131 129 126 
3 131 126 130 
3 211 62 60 
3 211 60 210 
3 92 93 214 
3 92 214 213 
3 215 225 224 
3 215 224 214 
3 209 218 229 
3 209 229 210 
3 231 230 229 
3 231 229 218 
3 225 171 233 
3 225 233 224 
3 130 126 230 
3 130 230 231 
3 171 128 129 
3 171 129 233 
3 32 237 236 
3 32 236 35 
3 33 238 237 
3 33 237 32 
3 36 239 238 
3 36 238 33 
3 39 240 239 
3 39 239 36 
3 72 241 240 
3 72 240 39 
3 72 70 242 
3 72 242 241 
3 68 243 242 
3 68 242 70 
3 65 244 243 
3 65 243 68 
3 66 245 244 
3 66 244 65 
3 78 246 245 
3 78 245 66 
3 46 247 246 
3 46 246 78 
3 35 236 247 
3 35 247 46 
3 237 98 145 
3 237 145 236 
3 238 101 98 
3 238 98 237 
3 239 102 101 
3 239 101 238 
3 240 234 102 
3 240 102 239 
3 241 235 234 
3 241 234 240 
3 242 103 235 
3 242 235 241 
3 243 100 103 
3 243 103 242 
3 244 99 100 
3 244 100 243 
3 245 144 99 
3 245 99 244 
3 246 143 144 
3 246 144 245 
3 247 142 143 
3 247 143 246 
3 236 145 142 
3 236 142 247 
3 72 249 248 
3 72 248 71 
3 39 250 249 
3 39 249 72 
3 40 251 250 
3 40 250 39 
3 71 248 251 
3 71 251 40 
3 249 253 252 
3 249 252 248 
3 250 254 253 
3 250 253 249 
3 251 255 254 
3 251 254 250 
3 248 252 255 
3 248 255 251 
3 253 257 256 
3 253 256 252 
3 254 258 257 
3 254 257 253 
3 255 259 258 
3 255 258 254 
3 252 256 259 
3 252 259 255 
3 257 106 107 
3 257 107 256 
3 258 105 106 
3 258 106 257 
3 259 104 105 
3 259 105 258 
3 256 107 104 
3 256 104 259 
3 226 125 122 
3 226 122 227 
3 42 160 2 
3 42 2 4 
3 57 9 1 
3 57 1 161 
3 64 163 164 
3 64 164 276 
3 76 22 18 
3 76 18 165 
3 89 166 19 
3 89 19 24 
3 96 167 166 
3 96 166 89 
3 76 165 160 
3 76 160 42 
3 55 61 163 
3 55 163 161 
3 95 167 217 
3 95 217 216 
3 159 124 125 
3 159 125 217 
3 227 277 164 
3 227 164 162 
